<svg xmlns="http://www.w3.org/2000/svg" width="165.909" height="38.496" viewBox="0 0 165.909 38.496">
  <g id="Group_353" data-name="Group 353" transform="translate(-1723.226 318.086)">
    <path id="Path_403" data-name="Path 403" d="M1875.361-311.2a6.9,6.9,0,0,0,6.887,6.9,6.9,6.9,0,0,0,6.887-6.9,6.891,6.891,0,0,0-6.887-6.886,6.89,6.89,0,0,0-6.887,6.886" />
    <path id="Path_404" data-name="Path 404" d="M1736.224-307.058v5.041h-2.511a3.922,3.922,0,0,0-1.167-2.605,3.671,3.671,0,0,0-2.584-.9,4.072,4.072,0,0,0-2.869,1.016,3.2,3.2,0,0,0-1.1,2.43,2.908,2.908,0,0,0,.9,2.153,7.317,7.317,0,0,0,3.61,1.47,16.62,16.62,0,0,1,4.079,1.256,5.224,5.224,0,0,1,2.127,1.928,5.159,5.159,0,0,1,.762,2.78,5.639,5.639,0,0,1-1.9,4.261,6.845,6.845,0,0,1-4.891,1.782,6.052,6.052,0,0,1-5.406-2.932v2.405h-2.044v-5.909h2.512a5.262,5.262,0,0,0,1.539,3.292,4.381,4.381,0,0,0,3.065,1.1,4.545,4.545,0,0,0,3.2-1.146,3.611,3.611,0,0,0,1.245-2.742,3.012,3.012,0,0,0-1.108-2.452,10,10,0,0,0-3.535-1.249,17.639,17.639,0,0,1-4.024-1.275,5.2,5.2,0,0,1-2.063-1.874,4.919,4.919,0,0,1-.751-2.682,5.313,5.313,0,0,1,1.736-4.006,6.322,6.322,0,0,1,4.53-1.655,6.265,6.265,0,0,1,2.877.624,5.257,5.257,0,0,1,1.73,1.568v-1.678Z" />
    <path id="Path_405" data-name="Path 405" d="M1741.359-307.058v-9.8h-2.515v29.887h7.286v-2.365h-4.771v-15.358h4.456v-2.363Z" />
    <path id="Path_406" data-name="Path 406" d="M1869.269-307.058v-9.8h-2.518v29.89h7.286v-2.364h-4.768v-15.362h4.454v-2.363Z" />
    <path id="Path_407" data-name="Path 407" d="M1754.435-279.59l3.047-7.183-7.247-17.92h-3.213v-2.364h9.24v2.364h-3.16l5.734,14.69,6.154-14.69h-3.134v-2.364h9.12v2.364h-3.193l-10.669,25.1Z" />
    <path id="Path_408" data-name="Path 408" d="M1772.143-286.971v-27.767h-3.42v-2.371h5.927v30.138Z" />
    <path id="Path_409" data-name="Path 409" d="M1794.1-292.666h2.66a10.783,10.783,0,0,1-4.074,4.63,10.494,10.494,0,0,1-5.578,1.591,10.892,10.892,0,0,1-5.294-1.395,9.965,9.965,0,0,1-3.974-3.876,10.489,10.489,0,0,1-1.4-5.264,10.169,10.169,0,0,1,3.109-7.476,10.113,10.113,0,0,1,7.428-3.116,10.937,10.937,0,0,1,5.372,1.433,9.616,9.616,0,0,1,3.922,3.936,10.783,10.783,0,0,1,1.34,5.145c0,.187-.012.479-.022.87h-18.638a8.2,8.2,0,0,0,2.674,5.384,7.885,7.885,0,0,0,5.419,2.041,8.232,8.232,0,0,0,4.038-.976,8.64,8.64,0,0,0,3.022-2.927m1.165-5.554a8.216,8.216,0,0,0-2.847-5.063,8.173,8.173,0,0,0-5.426-1.963,7.825,7.825,0,0,0-5.257,1.978,8.093,8.093,0,0,0-2.788,5.048Z" />
    <path id="Path_410" data-name="Path 410" d="M1819.195-307.058v5.9h-2.241a8.648,8.648,0,0,0-3.078-2.927,7.764,7.764,0,0,0-3.869-1.041,7.689,7.689,0,0,0-5.669,2.383,7.9,7.9,0,0,0-2.347,5.765,7.85,7.85,0,0,0,2.329,5.724,7.61,7.61,0,0,0,5.624,2.361A7.8,7.8,0,0,0,1814-290a7.764,7.764,0,0,0,2.952-3.317h2.908a10.427,10.427,0,0,1-3.9,5.013,10.261,10.261,0,0,1-5.96,1.858,10.7,10.7,0,0,1-5.242-1.392,9.944,9.944,0,0,1-3.939-3.926,10.637,10.637,0,0,1-1.406-5.263,10.653,10.653,0,0,1,1.4-5.22,10.027,10.027,0,0,1,3.864-3.924,10.36,10.36,0,0,1,5.167-1.4,9.628,9.628,0,0,1,7.112,3.245v-2.731Z" />
    <path id="Path_411" data-name="Path 411" d="M1823.85-286.971v-17.661H1820.5v-2.425h5.866v4.129a6.553,6.553,0,0,1,2.479-2.917,9.408,9.408,0,0,1,4.379-1.212v2.446a7.662,7.662,0,0,0-5.138,2.054,6.542,6.542,0,0,0-1.72,4.724v10.862Z" />
    <path id="Path_412" data-name="Path 412" d="M1853.744-307.04l0,20.069h-2.509v-4.239a10.4,10.4,0,0,1-2.933,3.26,9.083,9.083,0,0,1-5.1,1.507,10.132,10.132,0,0,1-5.041-1.377,9.8,9.8,0,0,1-3.812-3.9,10.707,10.707,0,0,1-1.388-5.226,10.942,10.942,0,0,1,1.388-5.275,9.954,9.954,0,0,1,3.8-3.953,10.066,10.066,0,0,1,5.116-1.4,8.743,8.743,0,0,1,4.957,1.442,10.575,10.575,0,0,1,3.015,3.328v-4.257Zm-2.467,9.985a7.843,7.843,0,0,0-2.311-5.72,7.53,7.53,0,0,0-5.562-2.346,7.484,7.484,0,0,0-5.556,2.369,7.913,7.913,0,0,0-2.321,5.756,7.931,7.931,0,0,0,2.308,5.749,7.508,7.508,0,0,0,5.544,2.36,7.544,7.544,0,0,0,5.567-2.37,7.957,7.957,0,0,0,2.331-5.8" />
    <path id="Path_413" data-name="Path 413" d="M1860.99-286.969H1855.1v-2.364h3.357v-17.724a44.905,44.905,0,0,1,.543-6.95,5.215,5.215,0,0,1,2.112-2.454,9.606,9.606,0,0,1,4.18-1.173v2.285a5.567,5.567,0,0,0-2.774.9,3.406,3.406,0,0,0-1.308,1.738c-.124.4-.205,4.147-.242,5.658h4.324v2.361h-4.324v15.363Z" />
  </g>
</svg>
