<svg xmlns="http://www.w3.org/2000/svg" width="10.21" height="5.812" viewBox="0 0 10.21 5.812">
  <path d="M1884.515,9371.3l-4.751,4.751-4.751-4.751" transform="translate(-1874.659 -9370.944)" fill="none" stroke="currentColor" stroke-miterlimit="10" stroke-width="1"/>
</svg>
