<?xml version="1.0" encoding="utf-8"?>
<!-- Generator: Adobe Illustrator 27.7.0, SVG Export Plug-In . SVG Version: 6.00 Build 0)  -->
<svg version="1.1" id="Layer_1" xmlns="http://www.w3.org/2000/svg" xmlns:xlink="http://www.w3.org/1999/xlink" x="0px" y="0px"
	 viewBox="0 0 50 50" style="enable-background:new 0 0 50 50;" xml:space="preserve">
<style type="text/css">
	.st0{fill:none;stroke:#010101;stroke-width:2;stroke-miterlimit:10;}
</style>
<path class="st0" d="M24.6,15.4c0.3,0,0.5-0.1,0.7-0.3C31,8,42,11.3,42.3,20.5c0,2.5-1,4.8-2.7,6.6L26.3,40.3
	c-0.5,0.5-1.1,0.7-1.8,0.7c-0.6,0-1.3-0.2-1.8-0.7L9.6,27.1c-1.8-1.7-2.7-4.1-2.7-6.6c0.3-9.2,11.3-12.5,17-5.4
	C24.1,15.3,24.3,15.4,24.6,15.4z"/>
</svg>
